81669 914245 525
904143 505929 525
967550 538183 525
999290 408931 525
887386 433232 525
211934 695588 509
373774 545256 470
660875 236154 509
886270 352190 525
517774 814444 509
883604 21578 525
317666 133368 443
689624 703368 442
816561 447737 509
975318 435718 525
857168 563190 525
403894 615283 470
451128 980071 525
979744 430352 525
355562 938395 525
458694 767093 509
539389 90028 470
136683 686035 509
76156 765384 509
433478 954682 525
533272 404969 470
904010 802845 525
667485 796125 504
118396 95952 354
231790 112384 443
213501 811728 509
425268 527743 470
123246 712634 509
349090 758605 509
366109 8551 443
460552 682134 509
609132 578802 434
324182 467818 449
828485 599620 509
232155 603277 470
124213 123754 318
134733 742065 509
573486 703036 509
546583 50558 470
632585 336672 509
792777 884105 525
100895 999870 525
675185 429152 509
657397 13907 509
909876 24072 525
818525 10064 509
147694 485472 449
778321 890271 525
415366 869820 525
521835 928358 525
758822 172520 509
989578 632377 525
178334 944640 525
979352 591435 525
368687 117554 443
801371 327405 509
254601 351050 441
125126 804896 509
389040 240204 441
92644 937434 525
501789 73909 449
803797 894248 525
878443 654944 525
862881 514306 525
990457 587655 525
288792 60870 443
341811 894242 525
714166 288021 509
120610 838215 525
749843 118733 509
557288 925482 525
213624 315576 443
832903 511010 509
994108 544157 525
614567 858354 525
749835 674044 504
6307 800051 509
426920 663095 509
761476 254525 509
815981 967155 525
156642 309065 443
378894 628287 509
319006 123488 443
535752 29976 470
540238 471250 470
517734 537548 439
266615 735262 509
427780 61683 449
182712 648795 509
255867 646365 509
390074 200907 443
909132 410330 525
365606 71929 443
648696 771701 504
880366 596180 525
849400 479106 525
245346 906150 525
650320 151828 509
53519 481341 449
167371 9472 383
949971 782520 525
86599 830511 509
491122 129728 449
305205 141529 443
209319 915406 525
252637 393504 441
916378 609641 525
701406 239162 509
110145 735646 509
738425 741958 424
67964 59476 335
111488 130178 349
688985 325448 509
511248 862942 525
827306 394865 509
233685 881658 525
87929 242796 443
291917 621504 470
515064 37809 470
918032 284025 525
726961 77457 509
455348 393003 449
60287 613042 470
386443 7024 443
772005 68147 509
456219 674845 509
782723 79902 509
551417 801635 509
150757 96100 375
545576 512874 439
866748 697161 525
986155 973635 427
453432 474125 444
398128 581740 470
486745 327012 449
491093 961394 525
891024 549791 525
273881 209413 443
619311 707537 509
566841 92627 470
793077 240379 509
559535 814083 509
796101 392 509
162504 329250 443
315550 2079 443
80265 420114 449
347554 498101 449
258408 62203 443
565912 735282 509
463329 14617 449
929352 152439 525
166470 92036 383
888395 856703 445
484159 986392 525
392629 737255 509
517481 444389 470
494353 200327 449
603804 618534 447
388598 176028 443
244407 70126 443
716839 347350 509
39181 701245 509
353011 302553 441
937937 869601 476
2460 640852 509
430823 985816 525
44962 562206 470
192224 742096 509
137699 192947 383
346756 688382 509
547122 946398 525
810382 560673 509
257357 575115 470
903939 277013 525
483616 551693 470
583093 458557 470
50877 321278 443
639094 827280 504
783519 661435 504
323196 891033 525
254964 155676 443
945643 819630 525
136354 129091 344
400379 758058 509
791061 237546 509
34623 834686 509
749418 462324 509
930616 498229 525
716420 993703 525
947153 27376 525
943654 429415 525
261305 752818 509
914043 884006 476
467395 999329 525
208755 420716 449
288578 774649 509
162707 179203 352
616659 893398 525
400814 216520 443
928544 528792 525
680051 700051 442
630548 720103 504
777140 232017 509
826892 543902 509
515250 479541 470
615185 284062 470
552269 304388 470
712301 217088 509
925775 134000 525
122525 415268 449
179693 655425 509
303018 331495 384
650968 613996 509
953936 638077 525
342148 577606 470
713191 53323 509
138745 456421 449
76304 854347 525
321671 867318 525
951132 627759 525
686811 442204 509
422197 808190 509
851187 407249 525
417965 855893 525
137105 565440 470
7924 453678 449
938128 9242 525
602371 44305 470
120974 657939 509
885529 501534 525
470408 194774 449
201681 10287 383
812193 714313 468
861514 819718 525
931791 89132 525
400086 326316 441
625611 438326 470
194598 829646 509
508599 510851 377
74756 64728 325
317813 153219 443
434685 676526 509
528819 230431 470
389679 482301 449
561803 133839 470
